…
An individual agents adoption utility is a sum of the mean partial
utilities with weights:

``` r
##individual weights for financial, social and barrier terms
get_model_weights(shap_scores_long_sample)
#> Joining, by = c("code", "answercode")
#> # A tibble: 755 x 4
#>       ID    q9_1    qsp21 theta
#>    <int>   <dbl>    <dbl> <dbl>
#>  1     1   3.32   0.576   2.83 
#>  2     2   0.829 -0.00886 2.04 
#>  3     3  -0.114  1.50    2.88 
#>  4     4   0.301  3.22    5.12 
#>  5     5 -27.6    4.33    5.06 
#>  6     6   0.199 -1.46    4.76 
#>  7     7   0.825  3.74    2.67 
#>  8     8   1.57   0.309   0.654
#>  9     9   1.44  -0.532   0.663
#> 10    10 -13.9    1.83    1.54 
#> # ... with 745 more rows
```
…
